<mxfile host="app.diagrams.net" modified="2021-10-25T09:51:39.915Z" agent="5.0 (Windows NT 10.0; Win64; x64) AppleWebKit/537.36 (KHTML, like Gecko) Chrome/94.0.4606.81 Safari/537.36" etag="PHJBhGP2VaXEDoCUx9hf" version="15.4.3" type="gitlab" pages="2">
  <diagram id="YhGQ6q-Sj-Ub5SnTqhg_" name="Page-1">
    <mxGraphModel dx="1002" dy="505" grid="1" gridSize="10" guides="1" tooltips="1" connect="1" arrows="1" fold="1" page="1" pageScale="1" pageWidth="850" pageHeight="1100" math="0" shadow="0">
      <root>
        <mxCell id="0" />
        <mxCell id="1" parent="0" />
        <mxCell id="h_bZdVtq35TK788SGugq-6" value="" style="shape=table;startSize=0;container=1;collapsible=0;childLayout=tableLayout;align=right;" vertex="1" parent="1">
          <mxGeometry x="60" y="396" width="859" height="474" as="geometry" />
        </mxCell>
        <mxCell id="h_bZdVtq35TK788SGugq-7" value="" style="shape=partialRectangle;collapsible=0;dropTarget=0;pointerEvents=0;fillColor=none;top=0;left=0;bottom=0;right=0;points=[[0,0.5],[1,0.5]];portConstraint=eastwest;" vertex="1" parent="h_bZdVtq35TK788SGugq-6">
          <mxGeometry width="859" height="90" as="geometry" />
        </mxCell>
        <mxCell id="h_bZdVtq35TK788SGugq-38" style="shape=partialRectangle;html=1;whiteSpace=wrap;connectable=0;overflow=hidden;fillColor=none;top=0;left=0;bottom=0;right=0;pointerEvents=1;" vertex="1" parent="h_bZdVtq35TK788SGugq-7">
          <mxGeometry width="112" height="90" as="geometry">
            <mxRectangle width="112" height="90" as="alternateBounds" />
          </mxGeometry>
        </mxCell>
        <mxCell id="h_bZdVtq35TK788SGugq-8" value="" style="shape=partialRectangle;html=1;whiteSpace=wrap;connectable=0;overflow=hidden;fillColor=none;top=0;left=0;bottom=0;right=0;pointerEvents=1;" vertex="1" parent="h_bZdVtq35TK788SGugq-7">
          <mxGeometry x="112" width="370" height="90" as="geometry">
            <mxRectangle width="370" height="90" as="alternateBounds" />
          </mxGeometry>
        </mxCell>
        <mxCell id="h_bZdVtq35TK788SGugq-9" value="" style="shape=partialRectangle;html=1;whiteSpace=wrap;connectable=0;overflow=hidden;fillColor=none;top=0;left=0;bottom=0;right=0;pointerEvents=1;" vertex="1" parent="h_bZdVtq35TK788SGugq-7">
          <mxGeometry x="482" width="377" height="90" as="geometry">
            <mxRectangle width="377" height="90" as="alternateBounds" />
          </mxGeometry>
        </mxCell>
        <mxCell id="h_bZdVtq35TK788SGugq-10" value="" style="shape=partialRectangle;collapsible=0;dropTarget=0;pointerEvents=0;fillColor=none;top=0;left=0;bottom=0;right=0;points=[[0,0.5],[1,0.5]];portConstraint=eastwest;" vertex="1" parent="h_bZdVtq35TK788SGugq-6">
          <mxGeometry y="90" width="859" height="96" as="geometry" />
        </mxCell>
        <mxCell id="h_bZdVtq35TK788SGugq-39" value="Programming core" style="shape=partialRectangle;html=1;whiteSpace=wrap;connectable=0;overflow=hidden;fillColor=none;top=0;left=0;bottom=0;right=0;pointerEvents=1;" vertex="1" parent="h_bZdVtq35TK788SGugq-10">
          <mxGeometry width="112" height="96" as="geometry">
            <mxRectangle width="112" height="96" as="alternateBounds" />
          </mxGeometry>
        </mxCell>
        <mxCell id="h_bZdVtq35TK788SGugq-11" value="What is it?&lt;span style=&quot;white-space: pre&quot;&gt;	&lt;/span&gt;&lt;br&gt;A house is a foundation of four wall and one Roof top of it" style="shape=partialRectangle;html=1;whiteSpace=wrap;connectable=0;overflow=hidden;fillColor=none;top=0;left=0;bottom=0;right=0;pointerEvents=1;" vertex="1" parent="h_bZdVtq35TK788SGugq-10">
          <mxGeometry x="112" width="370" height="96" as="geometry">
            <mxRectangle width="370" height="96" as="alternateBounds" />
          </mxGeometry>
        </mxCell>
        <mxCell id="h_bZdVtq35TK788SGugq-12" value="How Do i get it?&lt;br&gt;&lt;ol&gt;&lt;li style=&quot;text-align: left&quot;&gt;Pour a foundation&lt;/li&gt;&lt;li style=&quot;text-align: left&quot;&gt;Build 4 walls on top of foundation.&lt;/li&gt;&lt;li style=&quot;text-align: left&quot;&gt;Put an roof on top of that&lt;/li&gt;&lt;/ol&gt;" style="shape=partialRectangle;html=1;whiteSpace=wrap;connectable=0;overflow=hidden;fillColor=none;top=0;left=0;bottom=0;right=0;pointerEvents=1;" vertex="1" parent="h_bZdVtq35TK788SGugq-10">
          <mxGeometry x="482" width="377" height="96" as="geometry">
            <mxRectangle width="377" height="96" as="alternateBounds" />
          </mxGeometry>
        </mxCell>
        <mxCell id="h_bZdVtq35TK788SGugq-13" value="" style="shape=partialRectangle;collapsible=0;dropTarget=0;pointerEvents=0;fillColor=none;top=0;left=0;bottom=0;right=0;points=[[0,0.5],[1,0.5]];portConstraint=eastwest;" vertex="1" parent="h_bZdVtq35TK788SGugq-6">
          <mxGeometry y="186" width="859" height="96" as="geometry" />
        </mxCell>
        <mxCell id="h_bZdVtq35TK788SGugq-40" value="Program: get average of numbers of an array" style="shape=partialRectangle;html=1;whiteSpace=wrap;connectable=0;overflow=hidden;fillColor=none;top=0;left=0;bottom=0;right=0;pointerEvents=1;" vertex="1" parent="h_bZdVtq35TK788SGugq-13">
          <mxGeometry width="112" height="96" as="geometry">
            <mxRectangle width="112" height="96" as="alternateBounds" />
          </mxGeometry>
        </mxCell>
        <mxCell id="h_bZdVtq35TK788SGugq-14" value="&lt;blockquote style=&quot;margin: 0 0 0 40px ; border: none ; padding: 0px&quot;&gt;&lt;blockquote style=&quot;margin: 0 0 0 40px ; border: none ; padding: 0px&quot;&gt;&lt;blockquote style=&quot;margin: 0 0 0 40px ; border: none ; padding: 0px&quot;&gt;Sum of all the numbers in the array&amp;nbsp;&lt;/blockquote&gt;&lt;/blockquote&gt;&lt;blockquote style=&quot;margin: 0 0 0 40px ; border: none ; padding: 0px&quot;&gt;&lt;blockquote style=&quot;margin: 0 0 0 40px ; border: none ; padding: 0px&quot;&gt;___________________________________&lt;/blockquote&gt;&lt;/blockquote&gt;&lt;/blockquote&gt;&lt;br&gt;&lt;blockquote style=&quot;margin: 0 0 0 40px ; border: none ; padding: 0px&quot;&gt;&lt;blockquote style=&quot;margin: 0 0 0 40px ; border: none ; padding: 0px&quot;&gt;&lt;blockquote style=&quot;margin: 0 0 0 40px ; border: none ; padding: 0px&quot;&gt;Length of the Array&lt;/blockquote&gt;&lt;/blockquote&gt;&lt;/blockquote&gt;" style="shape=partialRectangle;html=1;whiteSpace=wrap;connectable=0;overflow=hidden;fillColor=none;top=0;left=0;bottom=0;right=0;pointerEvents=1;align=center;" vertex="1" parent="h_bZdVtq35TK788SGugq-13">
          <mxGeometry x="112" width="370" height="96" as="geometry">
            <mxRectangle width="370" height="96" as="alternateBounds" />
          </mxGeometry>
        </mxCell>
        <mxCell id="h_bZdVtq35TK788SGugq-15" value="&lt;div&gt;&lt;br&gt;&lt;/div&gt;&lt;ol&gt;&lt;li style=&quot;text-align: left&quot;&gt;&lt;span style=&quot;color: rgb(0 , 0 , 0) ; font-family: &amp;#34;helvetica&amp;#34; ; font-size: 12px ; font-style: normal ; font-weight: 400 ; letter-spacing: normal ; text-indent: 0px ; text-transform: none ; word-spacing: 0px ; background-color: rgb(248 , 249 , 250) ; display: inline ; float: none&quot;&gt;set x equal to zero&lt;/span&gt;&lt;/li&gt;&lt;li style=&quot;text-align: left&quot;&gt;&lt;span style=&quot;color: rgb(0 , 0 , 0) ; font-family: &amp;#34;helvetica&amp;#34; ; font-size: 12px ; font-style: normal ; font-weight: 400 ; letter-spacing: normal ; text-indent: 0px ; text-transform: none ; word-spacing: 0px ; background-color: rgb(248 , 249 , 250) ; display: inline ; float: none&quot;&gt;Add first no in the array to X&lt;/span&gt;&lt;/li&gt;&lt;li style=&quot;text-align: left&quot;&gt;&lt;span style=&quot;color: rgb(0 , 0 , 0) ; font-family: &amp;#34;helvetica&amp;#34; ; font-size: 12px ; font-style: normal ; font-weight: 400 ; letter-spacing: normal ; text-indent: 0px ; text-transform: none ; word-spacing: 0px ; background-color: rgb(248 , 249 , 250) ; display: inline ; float: none&quot;&gt;repeat step 2 for rest of the no, in the array&lt;/span&gt;&lt;/li&gt;&lt;li style=&quot;text-align: left&quot;&gt;&lt;span style=&quot;color: rgb(0 , 0 , 0) ; font-family: &amp;#34;helvetica&amp;#34; ; font-size: 12px ; font-style: normal ; font-weight: 400 ; letter-spacing: normal ; text-indent: 0px ; text-transform: none ; word-spacing: 0px ; background-color: rgb(248 , 249 , 250) ; display: inline ; float: none&quot;&gt;Divide x by the length of the array&lt;/span&gt;&lt;/li&gt;&lt;/ol&gt;" style="shape=partialRectangle;html=1;whiteSpace=wrap;connectable=0;overflow=hidden;fillColor=none;top=0;left=0;bottom=0;right=0;pointerEvents=1;" vertex="1" parent="h_bZdVtq35TK788SGugq-13">
          <mxGeometry x="482" width="377" height="96" as="geometry">
            <mxRectangle width="377" height="96" as="alternateBounds" />
          </mxGeometry>
        </mxCell>
        <mxCell id="h_bZdVtq35TK788SGugq-16" value="" style="shape=partialRectangle;collapsible=0;dropTarget=0;pointerEvents=0;fillColor=none;top=0;left=0;bottom=0;right=0;points=[[0,0.5],[1,0.5]];portConstraint=eastwest;" vertex="1" parent="h_bZdVtq35TK788SGugq-6">
          <mxGeometry y="282" width="859" height="96" as="geometry" />
        </mxCell>
        <mxCell id="h_bZdVtq35TK788SGugq-41" style="shape=partialRectangle;html=1;whiteSpace=wrap;connectable=0;overflow=hidden;fillColor=none;top=0;left=0;bottom=0;right=0;pointerEvents=1;" vertex="1" parent="h_bZdVtq35TK788SGugq-16">
          <mxGeometry width="112" height="96" as="geometry">
            <mxRectangle width="112" height="96" as="alternateBounds" />
          </mxGeometry>
        </mxCell>
        <mxCell id="h_bZdVtq35TK788SGugq-17" value="Here all variables are by default final i.e. concrete and unchanged&amp;nbsp; and that can&#39;t change in scope of program&lt;br&gt;x=3 is similar to pi-3.14159" style="shape=partialRectangle;html=1;whiteSpace=wrap;connectable=0;overflow=hidden;fillColor=none;top=0;left=0;bottom=0;right=0;pointerEvents=1;" vertex="1" parent="h_bZdVtq35TK788SGugq-16">
          <mxGeometry x="112" width="370" height="96" as="geometry">
            <mxRectangle width="370" height="96" as="alternateBounds" />
          </mxGeometry>
        </mxCell>
        <mxCell id="h_bZdVtq35TK788SGugq-18" value="Every variable is consider as a placeholder and we can assign &amp;amp; reassign&amp;nbsp; value differently in different time." style="shape=partialRectangle;html=1;whiteSpace=wrap;connectable=0;overflow=hidden;fillColor=none;top=0;left=0;bottom=0;right=0;pointerEvents=1;" vertex="1" parent="h_bZdVtq35TK788SGugq-16">
          <mxGeometry x="482" width="377" height="96" as="geometry">
            <mxRectangle width="377" height="96" as="alternateBounds" />
          </mxGeometry>
        </mxCell>
        <mxCell id="h_bZdVtq35TK788SGugq-19" value="" style="shape=partialRectangle;collapsible=0;dropTarget=0;pointerEvents=0;fillColor=none;top=0;left=0;bottom=0;right=0;points=[[0,0.5],[1,0.5]];portConstraint=eastwest;" vertex="1" parent="h_bZdVtq35TK788SGugq-6">
          <mxGeometry y="378" width="859" height="96" as="geometry" />
        </mxCell>
        <mxCell id="h_bZdVtq35TK788SGugq-42" style="shape=partialRectangle;html=1;whiteSpace=wrap;connectable=0;overflow=hidden;fillColor=none;top=0;left=0;bottom=0;right=0;pointerEvents=1;" vertex="1" parent="h_bZdVtq35TK788SGugq-19">
          <mxGeometry width="112" height="96" as="geometry">
            <mxRectangle width="112" height="96" as="alternateBounds" />
          </mxGeometry>
        </mxCell>
        <mxCell id="h_bZdVtq35TK788SGugq-20" value="State can not change&amp;nbsp;" style="shape=partialRectangle;html=1;whiteSpace=wrap;connectable=0;overflow=hidden;fillColor=none;top=0;left=0;bottom=0;right=0;pointerEvents=1;" vertex="1" parent="h_bZdVtq35TK788SGugq-19">
          <mxGeometry x="112" width="370" height="96" as="geometry">
            <mxRectangle width="370" height="96" as="alternateBounds" />
          </mxGeometry>
        </mxCell>
        <mxCell id="h_bZdVtq35TK788SGugq-21" value="&lt;ul&gt;&lt;li&gt;State change frequently&lt;/li&gt;&lt;li&gt;Employee can initiate with a parameterize constructor and then it can change by setter method.&lt;/li&gt;&lt;li&gt;It is sometime problematic if there are many variables and they change their state frequently.&lt;/li&gt;&lt;/ul&gt;" style="shape=partialRectangle;html=1;whiteSpace=wrap;connectable=0;overflow=hidden;fillColor=none;top=0;left=0;bottom=0;right=0;pointerEvents=1;align=left;" vertex="1" parent="h_bZdVtq35TK788SGugq-19">
          <mxGeometry x="482" width="377" height="96" as="geometry">
            <mxRectangle width="377" height="96" as="alternateBounds" />
          </mxGeometry>
        </mxCell>
        <mxCell id="h_bZdVtq35TK788SGugq-1" value="Functional Programming&lt;br&gt;&lt;ul&gt;&lt;li&gt;Reduce potential bug in the system&lt;/li&gt;&lt;li&gt;Maximize reusability and readability&lt;/li&gt;&lt;/ul&gt;" style="text;html=1;strokeColor=none;fillColor=none;align=center;verticalAlign=middle;whiteSpace=wrap;rounded=0;" vertex="1" parent="1">
          <mxGeometry x="90" y="148" width="290" height="70" as="geometry" />
        </mxCell>
        <mxCell id="h_bZdVtq35TK788SGugq-5" value="Imperative programming&lt;br&gt;OOPS programming" style="shape=image;html=1;verticalAlign=top;verticalLabelPosition=bottom;labelBackgroundColor=#ffffff;imageAspect=0;aspect=fixed;image=https://cdn4.iconfinder.com/data/icons/technology-83/1000/object_programming_development_oriented_developer_object-oriented_programming_software-128.png" vertex="1" parent="1">
          <mxGeometry x="710" y="396" width="48" height="48" as="geometry" />
        </mxCell>
        <mxCell id="h_bZdVtq35TK788SGugq-2" value="Declarative Programming/&lt;br&gt;Functional Programming" style="shape=image;html=1;verticalAlign=top;verticalLabelPosition=bottom;labelBackgroundColor=#ffffff;imageAspect=0;aspect=fixed;image=https://cdn2.iconfinder.com/data/icons/sleekxp/Half-Life-Death-Match-Classic.png" vertex="1" parent="1">
          <mxGeometry x="320" y="414" width="40" height="40" as="geometry" />
        </mxCell>
        <mxCell id="h_bZdVtq35TK788SGugq-22" value="&lt;ul&gt;&lt;li&gt;Functional programming and object oriented programming are not opposite rather they work parallel.&lt;/li&gt;&lt;li&gt;&lt;br&gt;&lt;/li&gt;&lt;/ul&gt;" style="text;html=1;strokeColor=none;fillColor=none;align=left;verticalAlign=middle;whiteSpace=wrap;rounded=0;" vertex="1" parent="1">
          <mxGeometry x="470" y="148" width="280" height="82" as="geometry" />
        </mxCell>
        <mxCell id="h_bZdVtq35TK788SGugq-46" value="&lt;font style=&quot;font-size: 20px&quot;&gt;X&lt;/font&gt;" style="shape=image;html=1;verticalAlign=middle;verticalLabelPosition=middle;labelBackgroundColor=#ffffff;imageAspect=0;aspect=fixed;image=https://cdn0.iconfinder.com/data/icons/TWG_Retina_Icons/64/sum.png;fontColor=#660000;labelPosition=right;align=left;" vertex="1" parent="1">
          <mxGeometry x="270" y="588" width="30" height="30" as="geometry" />
        </mxCell>
        <mxCell id="h_bZdVtq35TK788SGugq-47" value="" style="shape=image;html=1;verticalAlign=top;verticalLabelPosition=bottom;labelBackgroundColor=#ffffff;imageAspect=0;aspect=fixed;image=https://cdn3.iconfinder.com/data/icons/letters-and-numbers-1/32/letter_N_blue-128.png;fontSize=20;fontColor=#660000;" vertex="1" parent="1">
          <mxGeometry x="290" y="640" width="30" height="30" as="geometry" />
        </mxCell>
        <mxCell id="h_bZdVtq35TK788SGugq-48" value="" style="shape=image;html=1;verticalAlign=top;verticalLabelPosition=bottom;labelBackgroundColor=#ffffff;imageAspect=0;aspect=fixed;image=https://cdn1.iconfinder.com/data/icons/feather-2/24/x-128.png;fontSize=20;fontColor=#660000;" vertex="1" parent="1">
          <mxGeometry x="189.5" y="618" width="30" height="30" as="geometry" />
        </mxCell>
        <mxCell id="h_bZdVtq35TK788SGugq-49" value="" style="shape=image;html=1;verticalAlign=top;verticalLabelPosition=bottom;labelBackgroundColor=#ffffff;imageAspect=0;aspect=fixed;image=https://cdn4.iconfinder.com/data/icons/ionicons/512/icon-minus-128.png;fontSize=20;fontColor=#660000;" vertex="1" parent="1">
          <mxGeometry x="190" y="600" width="29" height="29" as="geometry" />
        </mxCell>
        <mxCell id="h_bZdVtq35TK788SGugq-50" value="" style="shape=image;html=1;verticalAlign=top;verticalLabelPosition=bottom;labelBackgroundColor=#ffffff;imageAspect=0;aspect=fixed;image=https://cdn0.iconfinder.com/data/icons/math-business-icon-set/93/1_5-128.png;fontSize=20;fontColor=#660000;" vertex="1" parent="1">
          <mxGeometry x="220" y="618" width="30" height="30" as="geometry" />
        </mxCell>
      </root>
    </mxGraphModel>
  </diagram>
  <diagram id="cye_3sXYs6Dcp6A9bZCx" name="Core concepts">
    <mxGraphModel dx="1002" dy="505" grid="1" gridSize="10" guides="1" tooltips="1" connect="1" arrows="1" fold="1" page="1" pageScale="1" pageWidth="850" pageHeight="1100" math="0" shadow="0">
      <root>
        <mxCell id="RIT0sijmido1keJsCIwb-0" />
        <mxCell id="RIT0sijmido1keJsCIwb-1" parent="RIT0sijmido1keJsCIwb-0" />
        <mxCell id="RIT0sijmido1keJsCIwb-3" style="edgeStyle=orthogonalEdgeStyle;rounded=0;orthogonalLoop=1;jettySize=auto;html=1;" edge="1" parent="RIT0sijmido1keJsCIwb-1" source="RIT0sijmido1keJsCIwb-2" target="RIT0sijmido1keJsCIwb-4">
          <mxGeometry relative="1" as="geometry">
            <mxPoint x="190" y="270" as="targetPoint" />
            <Array as="points">
              <mxPoint x="445" y="200" />
              <mxPoint x="190" y="200" />
            </Array>
          </mxGeometry>
        </mxCell>
        <mxCell id="RIT0sijmido1keJsCIwb-5" style="edgeStyle=orthogonalEdgeStyle;rounded=0;orthogonalLoop=1;jettySize=auto;html=1;" edge="1" parent="RIT0sijmido1keJsCIwb-1" source="RIT0sijmido1keJsCIwb-2" target="RIT0sijmido1keJsCIwb-6">
          <mxGeometry relative="1" as="geometry">
            <mxPoint x="445" y="250" as="targetPoint" />
          </mxGeometry>
        </mxCell>
        <mxCell id="RIT0sijmido1keJsCIwb-7" style="edgeStyle=orthogonalEdgeStyle;rounded=0;orthogonalLoop=1;jettySize=auto;html=1;" edge="1" parent="RIT0sijmido1keJsCIwb-1" source="RIT0sijmido1keJsCIwb-2" target="RIT0sijmido1keJsCIwb-8">
          <mxGeometry relative="1" as="geometry">
            <mxPoint x="760" y="240" as="targetPoint" />
            <Array as="points">
              <mxPoint x="445" y="200" />
              <mxPoint x="760" y="200" />
            </Array>
          </mxGeometry>
        </mxCell>
        <mxCell id="RIT0sijmido1keJsCIwb-2" value="&lt;font style=&quot;font-size: 12px&quot; color=&quot;#000033&quot;&gt;Functional Programming Core concept&lt;/font&gt;" style="shape=image;html=1;verticalAlign=top;verticalLabelPosition=bottom;labelBackgroundColor=#ffffff;imageAspect=0;aspect=fixed;image=https://cdn2.iconfinder.com/data/icons/sleekxp/Half-Life-Death-Match-Classic.png;fontSize=20;fontColor=#660000;" vertex="1" parent="RIT0sijmido1keJsCIwb-1">
          <mxGeometry x="410" y="30" width="70" height="70" as="geometry" />
        </mxCell>
        <mxCell id="RIT0sijmido1keJsCIwb-4" value="Immutability&lt;br&gt;&lt;ul&gt;&lt;li style=&quot;text-align: left&quot;&gt;Within functional programming if value is assigned to a variable it can&#39;t change.&lt;/li&gt;&lt;li style=&quot;text-align: left&quot;&gt;similar like all variable comes with final&amp;nbsp;&lt;/li&gt;&lt;li style=&quot;text-align: left&quot;&gt;In functional programming state is maintained i.e. only one thing determine output of an function is input&lt;/li&gt;&lt;li style=&quot;text-align: left&quot;&gt;&lt;br&gt;&lt;/li&gt;&lt;/ul&gt;" style="text;html=1;strokeColor=none;fillColor=none;align=center;verticalAlign=middle;whiteSpace=wrap;rounded=0;" vertex="1" parent="RIT0sijmido1keJsCIwb-1">
          <mxGeometry x="50" y="240" width="270" height="160" as="geometry" />
        </mxCell>
        <mxCell id="RIT0sijmido1keJsCIwb-6" value="Functional Purity&lt;br&gt;&lt;ul&gt;&lt;li style=&quot;text-align: left&quot;&gt;Always return the same output given the same input&lt;/li&gt;&lt;li style=&quot;text-align: left&quot;&gt;If functions internal and external states change then function become impure which strictly avoided at functional programming.&lt;/li&gt;&lt;/ul&gt;" style="text;html=1;strokeColor=none;fillColor=none;align=center;verticalAlign=middle;whiteSpace=wrap;rounded=0;" vertex="1" parent="RIT0sijmido1keJsCIwb-1">
          <mxGeometry x="330" y="250" width="230" height="120" as="geometry" />
        </mxCell>
        <mxCell id="RIT0sijmido1keJsCIwb-8" value="First class function&lt;br&gt;&lt;ul&gt;&lt;li style=&quot;text-align: left&quot;&gt;Everything consider as function- like methods return type, arguments,&lt;/li&gt;&lt;/ul&gt;" style="text;html=1;strokeColor=none;fillColor=none;align=center;verticalAlign=middle;whiteSpace=wrap;rounded=0;" vertex="1" parent="RIT0sijmido1keJsCIwb-1">
          <mxGeometry x="630" y="250" width="180" height="85" as="geometry" />
        </mxCell>
        <mxCell id="3VW9iJmr1EBAGxEWyUIJ-0" value="&lt;ul&gt;&lt;li&gt;Define/assign function as variable&lt;/li&gt;&lt;li&gt;Creating reference of other class/ Interface&#39;s function&lt;/li&gt;&lt;/ul&gt;" style="rounded=0;whiteSpace=wrap;html=1;align=left;" vertex="1" parent="RIT0sijmido1keJsCIwb-1">
          <mxGeometry x="300" y="490" width="210" height="100" as="geometry" />
        </mxCell>
        <mxCell id="3VW9iJmr1EBAGxEWyUIJ-2" value="&lt;ul&gt;&lt;li&gt;Beside creating reference of other classis&#39;s method allows us to create new function from scratch&lt;/li&gt;&lt;li&gt;Lambda Expression is used to define function in short.&lt;br&gt;&lt;/li&gt;&lt;/ul&gt;" style="rounded=0;whiteSpace=wrap;html=1;align=left;" vertex="1" parent="RIT0sijmido1keJsCIwb-1">
          <mxGeometry x="550" y="490" width="210" height="100" as="geometry" />
        </mxCell>
        <mxCell id="3VW9iJmr1EBAGxEWyUIJ-3" value="Text" style="text;html=1;align=center;verticalAlign=middle;resizable=0;points=[];autosize=1;strokeColor=none;fillColor=none;" vertex="1" parent="RIT0sijmido1keJsCIwb-1">
          <mxGeometry x="580" y="430" width="40" height="20" as="geometry" />
        </mxCell>
        <mxCell id="3VW9iJmr1EBAGxEWyUIJ-4" value="&lt;ul&gt;&lt;li&gt;Function can be use like any other datatype in java&lt;/li&gt;&lt;/ul&gt;" style="rounded=0;whiteSpace=wrap;html=1;align=left;" vertex="1" parent="RIT0sijmido1keJsCIwb-1">
          <mxGeometry x="310" y="640" width="210" height="100" as="geometry" />
        </mxCell>
      </root>
    </mxGraphModel>
  </diagram>
</mxfile>
